<?xml version="1.0" encoding="utf-8"?>
<!-- Generator: Adobe Illustrator 18.0.0, SVG Export Plug-In . SVG Version: 6.00 Build 0)  -->
<!DOCTYPE svg PUBLIC "-//W3C//DTD SVG 1.1//EN" "http://www.w3.org/Graphics/SVG/1.1/DTD/svg11.dtd">
<svg version="1.1" id="Layer_1" xmlns="http://www.w3.org/2000/svg" xmlns:xlink="http://www.w3.org/1999/xlink" x="0px" y="0px"
	 width="32px" height="32px" viewBox="0 0 32 32" enable-background="new 0 0 32 32" xml:space="preserve">
<path fill="#F2CF5B" d="M28,32H4c-2.2,0-4-1.8-4-4V4c0-2.2,1.8-4,4-4h24c2.2,0,4,1.8,4,4v24C32,30.2,30.2,32,28,32z"/>
<path fill="#FFFFFF" d="M12.1,9.6h1.3c0.1,0,0.3-0.1,0.3-0.4V8.3h4.5v0.9c0,0.3,0.1,0.4,0.3,0.4h1.3c0.1,0,0.3-0.1,0.3-0.4V8.3
	c0-1.1-0.8-1.9-1.9-1.9h-4.5c-1.1,0-1.9,0.8-1.9,1.9v0.9C11.9,9.5,12,9.6,12.1,9.6z M23.7,11.5H8.3c-1.1,0-1.9,0.8-1.9,1.9v10.3
	c0,1.1,0.8,2,1.9,2h15.5c1.1,0,1.9-0.9,1.9-2V13.3C25.6,12.3,24.8,11.5,23.7,11.5z"/>
</svg>
