{
  "value": [
    {
      "name": "Atlassian Ltd",
      "emailaddress1": "test.account1@mail.com",
      "entityimage": null,
      "id": "ACCOUNTID01",
      "entityType": "Account"
    },
    {
      "name": "Dynamics",
      "emailaddress1": "test.account2@mail.com",
      "entityimage": null,
      "id": "ACCOUNTID02",
      "entityType": "Account"
    }
  ]
}
