{
  "value": [
    {
      "fullname": "Александр Жданов",
      "emailaddress1": "test.contact1@mail.com",
      "entityimage": null,
      "id": "CONTACTID01",
      "entityType": "Contact"
    },
    {
      "fullname": "Роман Зуев",
      "emailaddress1": "test.contact2@mail.com",
      "entityimage": null,
      "id": "CONTACTID01",
      "entityType": "Contact"
    }
  ]
}
