{
    "value": [
        {
            "@odata.etag": "W/\"111111\"",
            "fullname": "John Doe",
            "emailaddress1": "test@mail.com",
            "contactid": "CONTACTID0",
            "_parentcustomerid_value": "ACCOUNTID0"
        }
    ]
}
